<?xml version="1.0" encoding="utf-8"?>
<!-- Generator: Adobe Illustrator 22.0.1, SVG Export Plug-In . SVG Version: 6.00 Build 0)  -->
<svg version="1.1" id="Lager_1" xmlns="http://www.w3.org/2000/svg" xmlns:xlink="http://www.w3.org/1999/xlink" x="0px" y="0px"
	 viewBox="0 0 658 108" style="enable-background:new 0 0 658 108;" xml:space="preserve">
<style type="text/css">
	.st0{fill:#1D1D1D;}
	.st1{fill:#E20613;}
</style>
<polygon class="st0" points="648.8,24.1 606.5,24.1 601.6,37.8 611.8,37.8 611.8,101.7 625.2,101.7 625.2,37.8 643.9,37.8 "/>
<polygon class="st0" points="281.5,25.5 237.7,25.5 232.8,39.1 249.4,39.1 249.4,103.1 262.8,103.1 262.8,39.1 276.7,39.1 "/>
<polygon class="st0" points="132.9,39.1 137.8,25.5 104.9,25.5 96.4,25.5 91.5,39.3 91.5,57.6 91.5,71 91.5,103.1 104.9,103.1 
	104.9,71 121.1,71 125.9,57.6 104.9,57.6 104.9,39.1 "/>
<polygon class="st0" points="86.9,39.1 91.8,25.5 64,25.5 63.4,25.5 50.7,25.5 50.6,25.5 50,25.5 50,69.6 34.1,69.6 50,25.5 
	36.7,25.5 8.6,103.1 22,103.1 29.2,83 50,83 50,103.1 50.6,103.1 63.4,103.1 64,103.1 64,71 86.9,71 86.9,57.6 64,57.6 64,39.1 "/>
<g>
	<polygon class="st0" points="452.2,25.5 438.8,25.5 431.5,45.9 424.8,64.3 431.5,82.7 438.8,103.1 452.2,103.1 438.2,64.3 	"/>
	<polygon class="st0" points="415.9,25.5 410.9,39.2 410.9,103.1 424.3,103.1 424.3,25.5 	"/>
</g>
<polygon class="st0" points="468.2,39.1 491.1,39.1 496,25.5 468.2,25.5 454.8,25.5 454.8,39.1 454.8,57.6 454.8,71 454.8,89.5 
	454.8,103.1 468.2,103.1 491.4,103.1 491.4,89.5 468.2,89.5 468.2,71 491.4,71 491.4,57.6 468.2,57.6 "/>
<polygon class="st0" points="574.4,37.8 597.3,37.8 602.2,24.1 574.4,24.1 561,24.1 561,37.8 561,56.3 561,69.7 561,88.2 561,101.7 
	574.4,101.7 597.6,101.7 597.6,88.2 574.4,88.2 574.4,69.7 597.6,69.7 597.6,56.3 574.4,56.3 "/>
<rect x="542.6" y="24.1" class="st0" width="13.4" height="77.6"/>
<path class="st0" d="M238.4,79.6c0-11.5-8.4-21.1-19.4-23v0c-4.1-0.5-7.1-4-7.1-8.6c0-4.8,3.9-8.9,8.7-8.9l0,0h7.5l5-13.7h-13.1l0,0
	C208,25.8,198.2,35.9,198.2,48c0,11.1,7.5,20,17.7,22c4.9,0.5,8.8,4.6,8.8,9.6c0,5.3-4.4,9.8-9.7,9.8l0,0h-20.6l5,13.7h17.3l0,0
	C228.8,102.2,238.4,92,238.4,79.6z"/>
<path class="st0" d="M323.1,54.2c0-15.6-9.9-28.7-22.2-28.7h-6.7l0,0H286l-5.1,14.4v63.2h13.3V82.5h4.9l7.4,20.6h13.3l-8.6-23.9
	C318.3,74.4,323.1,65,323.1,54.2z M300.9,69.2h-6.7v-30h6.7c5.3,0,9.7,6.9,9.7,15C310.6,62.3,306.2,69.2,300.9,69.2z"/>
<path class="st0" d="M538.9,53.7c0-15.6-9.9-28.7-22.2-28.7h-6.7l0,0h-8.2l-5.1,14.4v63.2h13.3V82h4.9l7.4,20.6h13.3l-8.6-23.9
	C534.2,73.9,538.9,64.5,538.9,53.7z M516.8,68.7h-6.7v-30h6.7c5.3,0,9.7,6.9,9.7,15C526.5,61.8,522,68.7,516.8,68.7z"/>
<polygon class="st0" points="359.6,25.5 345.9,63.3 332.2,25.5 318.1,25.5 338.9,82.6 331.6,103.1 345.6,103.1 345.9,103.1 
	353,82.6 373.7,25.5 "/>
<polygon points="154.9,19.5 144.8,19.5 149.6,6.1 159.8,6.1 "/>
<polygon points="169.4,19.5 159.2,19.5 164.1,6.1 174.3,6.1 "/>
<path class="st0" d="M198.1,54.2c0-15.6-9.9-28.7-22.2-28.7h-6.7h-0.5h-12.8h-0.5v44.2h-16l16-44.2H142l-28.1,77.6h13.4l7.2-20h20.8
	v20h0.5h12.8h0.5V82.5h4.9l7.4,20.6h13.3l-8.6-23.9C193.3,74.4,198.1,65,198.1,54.2z M175.9,69.2h-6.7v-30h6.7c5.3,0,9.7,6.9,9.7,15
	C185.6,62.3,181.2,69.2,175.9,69.2z"/>
<path class="st0" d="M402.5,25.5h-5.7h1.3c-18.3,0-31.6,15.4-31.6,34.4v8.5c0,19,13.3,34.4,31.6,34.4l7.4,0.1V89.5l-7.4-0.1
	c-10.9,0-18.2-9.4-18.2-21v-8.5c0-11.6,7.3-21,18.2-21h-1.4h5.8h3.5l5-13.4H402.5z"/>
<polygon class="st1" points="555.9,19.5 542.6,19.5 547.4,6.1 560.8,6.1 "/>
</svg>
